miyake/ex6/test.vcd
$date
	Sun Jun 28 00:26:54 2020
$end
$version
	Icarus Verilog
$end
$timescale
	1ns
$end
$scope module BCD_COUNT_TEST $end
$var wire 4 ! Q [3:0] $end
$var wire 1 " CO $end
$var reg 1 # AR $end
$var reg 1 $ CE $end
$var reg 1 % CK $end
$scope module BCD $end
$var wire 1 # AR $end
$var wire 1 $ CE $end
$var wire 1 % CK $end
$var reg 1 " CO $end
$var reg 4 & Q [3:0] $end
$upscope $end
$upscope $end
$enddefinitions $end
#0
$dumpvars
bx &
0%
0$
x#
0"
bx !
$end
#5
b0 !
b0 &
1$
0#
#10
1%
#20
0%
#25
1#
#30
b1 !
b1 &
1%
#40
0%
#50
b10 !
b10 &
1%
#60
0%
#70
b11 !
b11 &
1%
#80
0%
0$
#90
1%
#100
0%
b100 !
b100 &
1$
#110
b101 !
b101 &
1%
#120
0%
#130
b110 !
b110 &
1%
#140
0%
#150
b111 !
b111 &
1%
#160
0%
b0 !
b0 &
0#
#170
1%
#180
0%
1#
#190
b1 !
b1 &
1%
#200
0%
#210
b10 !
b10 &
1%
#220
0%
#230
b11 !
b11 &
1%
#240
0%
#250
b100 !
b100 &
1%
#260
0%
#270
b101 !
b101 &
1%
#280
0%
#290
b110 !
b110 &
1%
