miyake/ex6/3d/out.txt
VCD info: dumpfile test.vcd opened for output.
   0 CK:0 CE:0 AR:1 CO:0 COA:x Q:xxxxxxxx QA:xxxxxxxx
   1 CK:0 CE:0 AR:0 CO:0 COA:0 Q:00000000 QA:00000000
   2 CK:1 CE:1 AR:1 CO:0 COA:0 Q:00010001 QA:00010001
   4 CK:0 CE:1 AR:1 CO:0 COA:0 Q:00010001 QA:00010001
   6 CK:1 CE:1 AR:1 CO:0 COA:0 Q:00010010 QA:00010010
   8 CK:0 CE:1 AR:1 CO:0 COA:0 Q:00010010 QA:00010010
  10 CK:1 CE:1 AR:0 CO:0 COA:0 Q:00000000 QA:00000000
  11 CK:1 CE:1 AR:1 CO:0 COA:0 Q:00000000 QA:00000000
  12 CK:0 CE:1 AR:1 CO:0 COA:0 Q:00000000 QA:00000000
  14 CK:1 CE:1 AR:1 CO:0 COA:0 Q:00000001 QA:00000001
  16 CK:0 CE:1 AR:1 CO:0 COA:0 Q:00000001 QA:00000001
  18 CK:1 CE:1 AR:1 CO:0 COA:0 Q:00000010 QA:00000010
  20 CK:0 CE:1 AR:1 CO:0 COA:0 Q:00000010 QA:00000010
  22 CK:1 CE:1 AR:1 CO:0 COA:0 Q:00000011 QA:00000011
  24 CK:0 CE:1 AR:1 CO:0 COA:0 Q:00000011 QA:00000011
  26 CK:1 CE:1 AR:1 CO:0 COA:0 Q:00000100 QA:00000100
  28 CK:0 CE:1 AR:1 CO:0 COA:0 Q:00000100 QA:00000100
  30 CK:1 CE:1 AR:1 CO:0 COA:0 Q:00000101 QA:00000101
  32 CK:0 CE:1 AR:1 CO:0 COA:0 Q:00000101 QA:00000101
  34 CK:1 CE:1 AR:1 CO:0 COA:0 Q:00000110 QA:00000110
  36 CK:0 CE:1 AR:1 CO:0 COA:0 Q:00000110 QA:00000110
  38 CK:1 CE:1 AR:1 CO:0 COA:0 Q:00000111 QA:00000111
  40 CK:0 CE:1 AR:1 CO:0 COA:0 Q:00000111 QA:00000111
  42 CK:1 CE:1 AR:1 CO:0 COA:0 Q:00001000 QA:00001000
  44 CK:0 CE:1 AR:1 CO:0 COA:0 Q:00001000 QA:00001000
  46 CK:1 CE:1 AR:1 CO:0 COA:0 Q:00001001 QA:00001001
  48 CK:0 CE:1 AR:1 CO:0 COA:0 Q:00001001 QA:00001001
  50 CK:1 CE:1 AR:1 CO:0 COA:0 Q:00010000 QA:00010000
  52 CK:0 CE:1 AR:1 CO:0 COA:0 Q:00010000 QA:00010000
  54 CK:1 CE:1 AR:1 CO:0 COA:0 Q:00010001 QA:00010001
  56 CK:0 CE:1 AR:1 CO:0 COA:0 Q:00010001 QA:00010001
  58 CK:1 CE:1 AR:1 CO:0 COA:0 Q:00010010 QA:00010010
  60 CK:0 CE:1 AR:1 CO:0 COA:0 Q:00010010 QA:00010010
  62 CK:1 CE:1 AR:1 CO:0 COA:0 Q:00010011 QA:00010011
  64 CK:0 CE:1 AR:1 CO:0 COA:0 Q:00010011 QA:00010011
  66 CK:1 CE:1 AR:1 CO:0 COA:0 Q:00010100 QA:00010100
  68 CK:0 CE:1 AR:1 CO:0 COA:0 Q:00010100 QA:00010100
  70 CK:1 CE:1 AR:1 CO:0 COA:0 Q:00010101 QA:00010101
  72 CK:0 CE:1 AR:1 CO:0 COA:0 Q:00010101 QA:00010101
  74 CK:1 CE:1 AR:1 CO:0 COA:0 Q:00010110 QA:00010110
  76 CK:0 CE:1 AR:1 CO:0 COA:0 Q:00010110 QA:00010110
  78 CK:1 CE:1 AR:1 CO:0 COA:0 Q:00010111 QA:00010111
  80 CK:0 CE:1 AR:1 CO:0 COA:0 Q:00010111 QA:00010111
  82 CK:1 CE:1 AR:1 CO:0 COA:0 Q:00011000 QA:00011000
  84 CK:0 CE:1 AR:1 CO:0 COA:0 Q:00011000 QA:00011000
  86 CK:1 CE:1 AR:1 CO:0 COA:0 Q:00011001 QA:00011001
  88 CK:0 CE:1 AR:1 CO:0 COA:0 Q:00011001 QA:00011001
  90 CK:1 CE:1 AR:1 CO:0 COA:0 Q:00100000 QA:00100000
  92 CK:0 CE:1 AR:1 CO:0 COA:0 Q:00100000 QA:00100000
  94 CK:1 CE:1 AR:1 CO:0 COA:0 Q:00100001 QA:00100001
  96 CK:0 CE:1 AR:1 CO:0 COA:0 Q:00100001 QA:00100001
  98 CK:1 CE:1 AR:1 CO:0 COA:0 Q:00100010 QA:00100010
 100 CK:0 CE:1 AR:1 CO:0 COA:0 Q:00100010 QA:00100010
 102 CK:1 CE:1 AR:1 CO:0 COA:0 Q:00100011 QA:00100011
 104 CK:0 CE:1 AR:1 CO:0 COA:0 Q:00100011 QA:00100011
 106 CK:1 CE:1 AR:1 CO:0 COA:0 Q:00100100 QA:00100100
 108 CK:0 CE:1 AR:1 CO:0 COA:0 Q:00100100 QA:00100100
 110 CK:1 CE:1 AR:1 CO:0 COA:0 Q:00100101 QA:00100101
 112 CK:0 CE:1 AR:1 CO:0 COA:0 Q:00100101 QA:00100101
 114 CK:1 CE:1 AR:1 CO:0 COA:0 Q:00100110 QA:00100110
 116 CK:0 CE:1 AR:1 CO:0 COA:0 Q:00100110 QA:00100110
 118 CK:1 CE:1 AR:1 CO:0 COA:0 Q:00100111 QA:00100111
 120 CK:0 CE:1 AR:1 CO:0 COA:0 Q:00100111 QA:00100111
 122 CK:1 CE:1 AR:1 CO:0 COA:0 Q:00101000 QA:00101000
 124 CK:0 CE:1 AR:1 CO:0 COA:0 Q:00101000 QA:00101000
 126 CK:1 CE:1 AR:1 CO:0 COA:0 Q:00101001 QA:00101001
 128 CK:0 CE:1 AR:1 CO:0 COA:0 Q:00101001 QA:00101001
 130 CK:1 CE:1 AR:1 CO:0 COA:0 Q:00110000 QA:00110000
 132 CK:0 CE:1 AR:1 CO:0 COA:0 Q:00110000 QA:00110000
 134 CK:1 CE:1 AR:1 CO:0 COA:0 Q:00110001 QA:00110001
 136 CK:0 CE:1 AR:1 CO:0 COA:0 Q:00110001 QA:00110001
 138 CK:1 CE:1 AR:1 CO:0 COA:0 Q:00110010 QA:00110010
 140 CK:0 CE:1 AR:1 CO:0 COA:0 Q:00110010 QA:00110010
 142 CK:1 CE:1 AR:1 CO:0 COA:0 Q:00110011 QA:00110011
 144 CK:0 CE:1 AR:1 CO:0 COA:0 Q:00110011 QA:00110011
 146 CK:1 CE:1 AR:1 CO:0 COA:0 Q:00110100 QA:00110100
 148 CK:0 CE:1 AR:1 CO:0 COA:0 Q:00110100 QA:00110100
 150 CK:1 CE:1 AR:1 CO:0 COA:0 Q:00110101 QA:00110101
 152 CK:0 CE:1 AR:1 CO:0 COA:0 Q:00110101 QA:00110101
 154 CK:1 CE:1 AR:1 CO:0 COA:0 Q:00110110 QA:00110110
 156 CK:0 CE:1 AR:1 CO:0 COA:0 Q:00110110 QA:00110110
 158 CK:1 CE:1 AR:1 CO:0 COA:0 Q:00110111 QA:00110111
 160 CK:0 CE:1 AR:1 CO:0 COA:0 Q:00110111 QA:00110111
 162 CK:1 CE:1 AR:1 CO:0 COA:0 Q:00111000 QA:00111000
 164 CK:0 CE:1 AR:1 CO:0 COA:0 Q:00111000 QA:00111000
 166 CK:1 CE:1 AR:1 CO:0 COA:0 Q:00111001 QA:00111001
 168 CK:0 CE:1 AR:1 CO:0 COA:0 Q:00111001 QA:00111001
 170 CK:1 CE:1 AR:1 CO:0 COA:0 Q:01000000 QA:01000000
 172 CK:0 CE:1 AR:1 CO:0 COA:0 Q:01000000 QA:01000000
 174 CK:1 CE:1 AR:1 CO:0 COA:0 Q:01000001 QA:01000001
 176 CK:0 CE:1 AR:1 CO:0 COA:0 Q:01000001 QA:01000001
 178 CK:1 CE:1 AR:1 CO:0 COA:0 Q:01000010 QA:01000010
 180 CK:0 CE:1 AR:1 CO:0 COA:0 Q:01000010 QA:01000010
 182 CK:1 CE:1 AR:1 CO:0 COA:0 Q:01000011 QA:01000011
 184 CK:0 CE:1 AR:1 CO:0 COA:0 Q:01000011 QA:01000011
 186 CK:1 CE:1 AR:1 CO:0 COA:0 Q:01000100 QA:01000100
 188 CK:0 CE:1 AR:1 CO:0 COA:0 Q:01000100 QA:01000100
 190 CK:1 CE:1 AR:1 CO:0 COA:0 Q:01000101 QA:01000101
 192 CK:0 CE:1 AR:1 CO:0 COA:0 Q:01000101 QA:01000101
 194 CK:1 CE:1 AR:1 CO:0 COA:0 Q:01000110 QA:01000110
 196 CK:0 CE:1 AR:1 CO:0 COA:0 Q:01000110 QA:01000110
 198 CK:1 CE:1 AR:1 CO:0 COA:0 Q:01000111 QA:01000111
 200 CK:0 CE:1 AR:1 CO:0 COA:0 Q:01000111 QA:01000111
 202 CK:1 CE:1 AR:1 CO:0 COA:0 Q:01001000 QA:01001000
 204 CK:0 CE:1 AR:1 CO:0 COA:0 Q:01001000 QA:01001000
 206 CK:1 CE:1 AR:1 CO:0 COA:0 Q:01001001 QA:01001001
 208 CK:0 CE:1 AR:1 CO:0 COA:0 Q:01001001 QA:01001001
 210 CK:1 CE:1 AR:1 CO:0 COA:0 Q:01010000 QA:01010000
 212 CK:0 CE:1 AR:1 CO:0 COA:0 Q:01010000 QA:01010000
 214 CK:1 CE:1 AR:1 CO:0 COA:0 Q:01010001 QA:01010001
 216 CK:0 CE:1 AR:1 CO:0 COA:0 Q:01010001 QA:01010001
 218 CK:1 CE:1 AR:1 CO:0 COA:0 Q:01010010 QA:01010010
 220 CK:0 CE:1 AR:1 CO:0 COA:0 Q:01010010 QA:01010010
 222 CK:1 CE:1 AR:1 CO:0 COA:0 Q:01010011 QA:01010011
 224 CK:0 CE:1 AR:1 CO:0 COA:0 Q:01010011 QA:01010011
 226 CK:1 CE:1 AR:1 CO:0 COA:0 Q:01010100 QA:01010100
 228 CK:0 CE:1 AR:1 CO:0 COA:0 Q:01010100 QA:01010100
 230 CK:1 CE:1 AR:1 CO:0 COA:0 Q:01010101 QA:01010101
 232 CK:0 CE:1 AR:1 CO:0 COA:0 Q:01010101 QA:01010101
 234 CK:1 CE:1 AR:1 CO:0 COA:0 Q:01010110 QA:01010110
 236 CK:0 CE:1 AR:1 CO:0 COA:0 Q:01010110 QA:01010110
 238 CK:1 CE:1 AR:1 CO:0 COA:0 Q:01010111 QA:01010111
 240 CK:0 CE:1 AR:1 CO:0 COA:0 Q:01010111 QA:01010111
 242 CK:1 CE:1 AR:1 CO:0 COA:0 Q:01011000 QA:01011000
 244 CK:0 CE:1 AR:1 CO:0 COA:0 Q:01011000 QA:01011000
 246 CK:1 CE:1 AR:1 CO:0 COA:0 Q:01011001 QA:01011001
 248 CK:0 CE:1 AR:1 CO:0 COA:0 Q:01011001 QA:01011001
 250 CK:1 CE:1 AR:1 CO:0 COA:0 Q:01100000 QA:01100000
 252 CK:0 CE:1 AR:1 CO:0 COA:0 Q:01100000 QA:01100000
 254 CK:1 CE:1 AR:1 CO:0 COA:0 Q:01100001 QA:01100001
 256 CK:0 CE:1 AR:1 CO:0 COA:0 Q:01100001 QA:01100001
 258 CK:1 CE:1 AR:1 CO:0 COA:0 Q:01100010 QA:01100010
 260 CK:0 CE:1 AR:1 CO:0 COA:0 Q:01100010 QA:01100010
 262 CK:1 CE:1 AR:1 CO:0 COA:0 Q:01100011 QA:01100011
 264 CK:0 CE:1 AR:1 CO:0 COA:0 Q:01100011 QA:01100011
 266 CK:1 CE:1 AR:1 CO:0 COA:0 Q:01100100 QA:01100100
 268 CK:0 CE:1 AR:1 CO:0 COA:0 Q:01100100 QA:01100100
 270 CK:1 CE:1 AR:1 CO:0 COA:0 Q:01100101 QA:01100101
 272 CK:0 CE:1 AR:1 CO:0 COA:0 Q:01100101 QA:01100101
 274 CK:1 CE:1 AR:1 CO:0 COA:0 Q:01100110 QA:01100110
 276 CK:0 CE:1 AR:1 CO:0 COA:0 Q:01100110 QA:01100110
 278 CK:1 CE:1 AR:1 CO:0 COA:0 Q:01100111 QA:01100111
 280 CK:0 CE:1 AR:1 CO:0 COA:0 Q:01100111 QA:01100111
 282 CK:1 CE:1 AR:1 CO:0 COA:0 Q:01101000 QA:01101000
 284 CK:0 CE:1 AR:1 CO:0 COA:0 Q:01101000 QA:01101000
 286 CK:1 CE:1 AR:1 CO:0 COA:0 Q:01101001 QA:01101001
 288 CK:0 CE:1 AR:1 CO:0 COA:0 Q:01101001 QA:01101001
 290 CK:1 CE:1 AR:1 CO:0 COA:0 Q:01110000 QA:01110000
 292 CK:0 CE:1 AR:1 CO:0 COA:0 Q:01110000 QA:01110000
 294 CK:1 CE:1 AR:1 CO:0 COA:0 Q:01110001 QA:01110001
 296 CK:0 CE:1 AR:1 CO:0 COA:0 Q:01110001 QA:01110001
 298 CK:1 CE:1 AR:1 CO:0 COA:0 Q:01110010 QA:01110010
 300 CK:0 CE:1 AR:1 CO:0 COA:0 Q:01110010 QA:01110010
 302 CK:1 CE:1 AR:1 CO:0 COA:0 Q:01110011 QA:01110011
 304 CK:0 CE:1 AR:1 CO:0 COA:0 Q:01110011 QA:01110011
 306 CK:1 CE:1 AR:1 CO:0 COA:0 Q:01110100 QA:01110100
 308 CK:0 CE:1 AR:1 CO:0 COA:0 Q:01110100 QA:01110100
 310 CK:1 CE:1 AR:1 CO:0 COA:0 Q:01110101 QA:01110101
 312 CK:0 CE:1 AR:1 CO:0 COA:0 Q:01110101 QA:01110101
 314 CK:1 CE:1 AR:1 CO:0 COA:0 Q:01110110 QA:01110110
 316 CK:0 CE:1 AR:1 CO:0 COA:0 Q:01110110 QA:01110110
 318 CK:1 CE:1 AR:1 CO:0 COA:0 Q:01110111 QA:01110111
 320 CK:0 CE:1 AR:1 CO:0 COA:0 Q:01110111 QA:01110111
 322 CK:1 CE:1 AR:1 CO:0 COA:0 Q:01111000 QA:01111000
 324 CK:0 CE:1 AR:1 CO:0 COA:0 Q:01111000 QA:01111000
 326 CK:1 CE:1 AR:1 CO:0 COA:0 Q:01111001 QA:01111001
 328 CK:0 CE:1 AR:1 CO:0 COA:0 Q:01111001 QA:01111001
 330 CK:1 CE:1 AR:1 CO:0 COA:0 Q:10000000 QA:10000000
 332 CK:0 CE:1 AR:1 CO:0 COA:0 Q:10000000 QA:10000000
 334 CK:1 CE:1 AR:1 CO:0 COA:0 Q:10000001 QA:10000001
 336 CK:0 CE:1 AR:1 CO:0 COA:0 Q:10000001 QA:10000001
 338 CK:1 CE:1 AR:1 CO:0 COA:0 Q:10000010 QA:10000010
 340 CK:0 CE:1 AR:1 CO:0 COA:0 Q:10000010 QA:10000010
 342 CK:1 CE:1 AR:1 CO:0 COA:0 Q:10000011 QA:10000011
 344 CK:0 CE:1 AR:1 CO:0 COA:0 Q:10000011 QA:10000011
 346 CK:1 CE:1 AR:1 CO:0 COA:0 Q:10000100 QA:10000100
 348 CK:0 CE:1 AR:1 CO:0 COA:0 Q:10000100 QA:10000100
 350 CK:1 CE:1 AR:1 CO:0 COA:0 Q:10000101 QA:10000101
 352 CK:0 CE:1 AR:1 CO:0 COA:0 Q:10000101 QA:10000101
 354 CK:1 CE:1 AR:1 CO:0 COA:0 Q:10000110 QA:10000110
 356 CK:0 CE:1 AR:1 CO:0 COA:0 Q:10000110 QA:10000110
 358 CK:1 CE:1 AR:1 CO:0 COA:0 Q:10000111 QA:10000111
 360 CK:0 CE:1 AR:1 CO:0 COA:0 Q:10000111 QA:10000111
 362 CK:1 CE:1 AR:1 CO:0 COA:0 Q:10001000 QA:10001000
 364 CK:0 CE:1 AR:1 CO:0 COA:0 Q:10001000 QA:10001000
 366 CK:1 CE:1 AR:1 CO:0 COA:0 Q:10001001 QA:10001001
 368 CK:0 CE:1 AR:1 CO:0 COA:0 Q:10001001 QA:10001001
 370 CK:1 CE:1 AR:1 CO:0 COA:0 Q:10010000 QA:10010000
 372 CK:0 CE:1 AR:1 CO:0 COA:0 Q:10010000 QA:10010000
 374 CK:1 CE:1 AR:1 CO:0 COA:0 Q:10010001 QA:10010001
 376 CK:0 CE:1 AR:1 CO:0 COA:0 Q:10010001 QA:10010001
 378 CK:1 CE:1 AR:1 CO:0 COA:0 Q:10010010 QA:10010010
 380 CK:0 CE:1 AR:1 CO:0 COA:0 Q:10010010 QA:10010010
 382 CK:1 CE:1 AR:1 CO:0 COA:0 Q:10010011 QA:10010011
 384 CK:0 CE:1 AR:1 CO:0 COA:0 Q:10010011 QA:10010011
 386 CK:1 CE:1 AR:1 CO:0 COA:0 Q:10010100 QA:10010100
 388 CK:0 CE:1 AR:1 CO:0 COA:0 Q:10010100 QA:10010100
 390 CK:1 CE:1 AR:1 CO:0 COA:0 Q:10010101 QA:10010101
 392 CK:0 CE:1 AR:1 CO:0 COA:0 Q:10010101 QA:10010101
 394 CK:1 CE:1 AR:1 CO:0 COA:0 Q:10010110 QA:10010110
 396 CK:0 CE:1 AR:1 CO:0 COA:0 Q:10010110 QA:10010110
 398 CK:1 CE:1 AR:1 CO:0 COA:0 Q:10010111 QA:10010111
 400 CK:0 CE:1 AR:1 CO:0 COA:0 Q:10010111 QA:10010111
 402 CK:1 CE:1 AR:1 CO:0 COA:0 Q:10011000 QA:10011000
 404 CK:0 CE:1 AR:1 CO:0 COA:0 Q:10011000 QA:10011000
 406 CK:1 CE:1 AR:1 CO:1 COA:1 Q:10011001 QA:10011001
 408 CK:0 CE:1 AR:1 CO:1 COA:1 Q:10011001 QA:10011001
 410 CK:1 CE:1 AR:1 CO:0 COA:0 Q:00000000 QA:00000000
 412 CK:0 CE:1 AR:1 CO:0 COA:0 Q:00000000 QA:00000000
 414 CK:1 CE:1 AR:1 CO:0 COA:0 Q:00000001 QA:00000001
 416 CK:0 CE:1 AR:1 CO:0 COA:0 Q:00000001 QA:00000001
 418 CK:1 CE:1 AR:1 CO:0 COA:0 Q:00000010 QA:00000010
 420 CK:0 CE:1 AR:1 CO:0 COA:0 Q:00000010 QA:00000010
 422 CK:1 CE:1 AR:1 CO:0 COA:0 Q:00000011 QA:00000011
 424 CK:0 CE:1 AR:1 CO:0 COA:0 Q:00000011 QA:00000011
 426 CK:1 CE:1 AR:1 CO:0 COA:0 Q:00000100 QA:00000100
 428 CK:0 CE:1 AR:1 CO:0 COA:0 Q:00000100 QA:00000100
 430 CK:1 CE:1 AR:1 CO:0 COA:0 Q:00000101 QA:00000101
 432 CK:0 CE:1 AR:1 CO:0 COA:0 Q:00000101 QA:00000101
 434 CK:1 CE:1 AR:1 CO:0 COA:0 Q:00000110 QA:00000110
 436 CK:0 CE:1 AR:1 CO:0 COA:0 Q:00000110 QA:00000110
 438 CK:1 CE:1 AR:1 CO:0 COA:0 Q:00000111 QA:00000111
 440 CK:0 CE:1 AR:1 CO:0 COA:0 Q:00000111 QA:00000111
 442 CK:1 CE:1 AR:1 CO:0 COA:0 Q:00001000 QA:00001000
 444 CK:0 CE:1 AR:1 CO:0 COA:0 Q:00001000 QA:00001000
 446 CK:1 CE:1 AR:1 CO:0 COA:0 Q:00001001 QA:00001001
 448 CK:0 CE:1 AR:1 CO:0 COA:0 Q:00001001 QA:00001001
 450 CK:1 CE:1 AR:1 CO:0 COA:0 Q:00010000 QA:00010000
 452 CK:0 CE:1 AR:1 CO:0 COA:0 Q:00010000 QA:00010000
 454 CK:1 CE:1 AR:1 CO:0 COA:0 Q:00010001 QA:00010001
 456 CK:0 CE:1 AR:1 CO:0 COA:0 Q:00010001 QA:00010001
 458 CK:1 CE:1 AR:1 CO:0 COA:0 Q:00010010 QA:00010010
 460 CK:0 CE:1 AR:1 CO:0 COA:0 Q:00010010 QA:00010010
 462 CK:1 CE:1 AR:1 CO:0 COA:0 Q:00010011 QA:00010011
 464 CK:0 CE:1 AR:1 CO:0 COA:0 Q:00010011 QA:00010011
 466 CK:1 CE:1 AR:1 CO:0 COA:0 Q:00010100 QA:00010100
 468 CK:0 CE:1 AR:1 CO:0 COA:0 Q:00010100 QA:00010100
 470 CK:1 CE:1 AR:1 CO:0 COA:0 Q:00010101 QA:00010101
 472 CK:0 CE:1 AR:1 CO:0 COA:0 Q:00010101 QA:00010101
 474 CK:1 CE:1 AR:1 CO:0 COA:0 Q:00010110 QA:00010110
 476 CK:0 CE:1 AR:1 CO:0 COA:0 Q:00010110 QA:00010110
 478 CK:1 CE:1 AR:1 CO:0 COA:0 Q:00010111 QA:00010111
 480 CK:0 CE:1 AR:1 CO:0 COA:0 Q:00010111 QA:00010111
 482 CK:1 CE:1 AR:1 CO:0 COA:0 Q:00011000 QA:00011000
 484 CK:0 CE:1 AR:1 CO:0 COA:0 Q:00011000 QA:00011000
 486 CK:1 CE:1 AR:1 CO:0 COA:0 Q:00011001 QA:00011001
 488 CK:0 CE:1 AR:1 CO:0 COA:0 Q:00011001 QA:00011001
 490 CK:1 CE:1 AR:1 CO:0 COA:0 Q:00100000 QA:00100000
 492 CK:0 CE:1 AR:1 CO:0 COA:0 Q:00100000 QA:00100000
 494 CK:1 CE:1 AR:1 CO:0 COA:0 Q:00100001 QA:00100001
 496 CK:0 CE:1 AR:1 CO:0 COA:0 Q:00100001 QA:00100001
 498 CK:1 CE:1 AR:1 CO:0 COA:0 Q:00100010 QA:00100010
 500 CK:0 CE:1 AR:1 CO:0 COA:0 Q:00100010 QA:00100010
 502 CK:1 CE:1 AR:1 CO:0 COA:0 Q:00100011 QA:00100011
 504 CK:0 CE:1 AR:1 CO:0 COA:0 Q:00100011 QA:00100011
 506 CK:1 CE:1 AR:1 CO:0 COA:0 Q:00100100 QA:00100100
 508 CK:0 CE:1 AR:1 CO:0 COA:0 Q:00100100 QA:00100100
 510 CK:1 CE:1 AR:1 CO:0 COA:0 Q:00100101 QA:00100101
