examX/out.txt
VCD info: dumpfile alun.vcd opened for output.
   0 a:1110 b:0110 f:xxxxx CLK:0 CLR:1 save:0 load:0 v:1 c:xxxx
   1 a:1110 b:0110 f:xxxxx CLK:0 CLR:0 save:0 load:0 v:1 c:0000
   2 a:1110 b:0110 f:xxxxx CLK:0 CLR:1 save:0 load:0 v:1 c:0000
   5 a:1110 b:0110 f:00010 CLK:1 CLR:1 save:0 load:0 v:1 c:0001
  10 a:1110 b:0110 f:00010 CLK:0 CLR:1 save:0 load:0 v:1 c:0001
  15 a:1110 b:0110 f:00010 CLK:1 CLR:1 save:0 load:0 v:0 c:0100
  20 a:1110 b:0110 f:00010 CLK:0 CLR:1 save:0 load:0 v:0 c:0100
  25 a:1110 b:0110 f:00011 CLK:1 CLR:1 save:1 load:0 v:1 c:0000
  30 a:1110 b:0110 f:00011 CLK:0 CLR:1 save:1 load:0 v:1 c:0000
  35 a:1110 b:0110 f:00011 CLK:1 CLR:1 save:0 load:0 v:0 c:1000
  40 a:1110 b:0110 f:00011 CLK:0 CLR:1 save:0 load:0 v:0 c:1000
  45 a:1110 b:0110 f:00011 CLK:1 CLR:1 save:0 load:1 v:0 c:1010
  50 a:1110 b:0110 f:00011 CLK:0 CLR:1 save:0 load:1 v:0 c:1010
  55 a:1110 b:0110 f:01000 CLK:1 CLR:1 save:0 load:0 v:0 c:0110
  60 a:1110 b:0110 f:01000 CLK:0 CLR:1 save:0 load:0 v:0 c:0110
  65 a:1110 b:0110 f:01100 CLK:1 CLR:1 save:0 load:0 v:0 c:1110
  70 a:1110 b:0110 f:01100 CLK:0 CLR:1 save:0 load:0 v:0 c:1110
  75 a:1110 b:0110 f:00000 CLK:1 CLR:1 save:0 load:0 v:0 c:1100
  80 a:1110 b:0110 f:00000 CLK:0 CLR:1 save:0 load:0 v:0 c:1100
  85 a:1110 b:0110 f:10000 CLK:1 CLR:1 save:0 load:0 v:0 c:0111
  90 a:1110 b:0110 f:10000 CLK:0 CLR:1 save:0 load:0 v:0 c:0111
  95 a:1110 b:0110 f:00100 CLK:1 CLR:1 save:0 load:0 v:1 c:0101
 100 a:1110 b:0110 f:00100 CLK:0 CLR:1 save:0 load:0 v:1 c:0101
 105 a:1110 b:0110 f:00100 CLK:1 CLR:1 save:0 load:0 v:0 c:0100
 110 a:1110 b:0110 f:00100 CLK:0 CLR:1 save:0 load:0 v:0 c:0100
 115 a:1110 b:0110 f:00110 CLK:1 CLR:1 save:0 load:0 v:0 c:0010
 120 a:1110 b:0110 f:00110 CLK:0 CLR:1 save:0 load:0 v:0 c:0010
 125 a:1110 b:0110 f:00110 CLK:1 CLR:1 save:0 load:0 v:1 c:0010
 130 a:1110 b:0110 f:00110 CLK:0 CLR:1 save:0 load:0 v:1 c:0010
 135 a:0110 b:1010 f:11111 CLK:1 CLR:0 save:0 load:0 v:1 c:0000
 137 a:0110 b:1010 f:11111 CLK:1 CLR:1 save:0 load:0 v:1 c:0000
 140 a:0110 b:1010 f:11111 CLK:0 CLR:1 save:0 load:0 v:1 c:0000
 145 a:0110 b:1010 f:11111 CLK:1 CLR:1 save:0 load:0 v:1 c:0000
 150 a:0110 b:1010 f:00010 CLK:0 CLR:1 save:0 load:0 v:1 c:0000
 155 a:0110 b:1010 f:00010 CLK:1 CLR:1 save:0 load:0 v:1 c:0001
 160 a:0110 b:1010 f:00010 CLK:0 CLR:1 save:0 load:0 v:0 c:0001
 165 a:0110 b:1010 f:00010 CLK:1 CLR:1 save:0 load:0 v:0 c:0000
 170 a:0110 b:1010 f:00011 CLK:0 CLR:1 save:0 load:0 v:1 c:0000
 175 a:0110 b:1010 f:00011 CLK:1 CLR:1 save:0 load:0 v:1 c:1111
 180 a:0110 b:1010 f:00011 CLK:0 CLR:1 save:0 load:0 v:0 c:1111
 185 a:0110 b:1010 f:00011 CLK:1 CLR:1 save:0 load:0 v:0 c:1100
 190 a:0110 b:1010 f:01000 CLK:0 CLR:1 save:0 load:0 v:0 c:1100
 195 a:0110 b:1010 f:01000 CLK:1 CLR:1 save:0 load:0 v:0 c:0010
 200 a:0110 b:1010 f:01100 CLK:0 CLR:1 save:0 load:0 v:0 c:0010
 205 a:0110 b:1010 f:01100 CLK:1 CLR:1 save:0 load:0 v:0 c:1110
 210 a:0110 b:1010 f:00000 CLK:0 CLR:1 save:0 load:0 v:0 c:1110
 215 a:0110 b:1010 f:00000 CLK:1 CLR:1 save:0 load:0 v:0 c:1100
 220 a:0110 b:1010 f:10000 CLK:0 CLR:1 save:0 load:0 v:0 c:1100
 225 a:0110 b:1010 f:10000 CLK:1 CLR:1 save:0 load:0 v:0 c:0011
 230 a:0110 b:1010 f:00100 CLK:0 CLR:1 save:0 load:0 v:1 c:0011
 235 a:0110 b:1010 f:00100 CLK:1 CLR:1 save:0 load:0 v:1 c:0011
 240 a:0110 b:1010 f:00100 CLK:0 CLR:1 save:0 load:0 v:0 c:0011
 245 a:0110 b:1010 f:00100 CLK:1 CLR:1 save:0 load:0 v:0 c:1100
 250 a:0110 b:1010 f:00110 CLK:0 CLR:1 save:0 load:0 v:0 c:1100
 255 a:0110 b:1010 f:00110 CLK:1 CLR:1 save:0 load:0 v:0 c:0000
 260 a:0110 b:1010 f:00110 CLK:0 CLR:1 save:0 load:0 v:1 c:0000
 265 a:0110 b:1010 f:00110 CLK:1 CLR:1 save:0 load:0 v:1 c:0110
 270 a:0110 b:1010 f:11111 CLK:0 CLR:1 save:0 load:0 v:1 c:0110
 275 a:0110 b:1010 f:11111 CLK:1 CLR:1 save:0 load:0 v:1 c:0000
 280 a:0110 b:1010 f:11111 CLK:0 CLR:1 save:0 load:0 v:1 c:0000
